…
------------------------------------------------------------------------

Lastly, the `edge` object provides a data frame that is useful for the
two previous functions as it links the Jetz et al. (2014) phylogeny with
your eBird checklist. You can peruse it independently, as it shows
updated scientific names, common names, and EDGE scores and ranks as
reported by the Jetz et al. paper:

``` r
edge
```

    ## # A tibble: 9,993 × 6
    ##                    sciName                       comName ED.Score
    ##                      <chr>                         <chr>    <dbl>
    ## 1       Pseudibis gigantea                    Giant Ibis 56.62592
    ## 2        Aegotheles savesi New Caledonian Owlet-nightjar 40.26083
    ## 3  Gymnogyps californianus             California Condor 33.39032
    ## 4      Strigops habroptila                        Kakapo 32.37154
    ## 5      Rhynochetos jubatus                          Kagu 55.38186
    ## 6  Houbaropsis bengalensis               Bengal Florican 24.27388
    ## 7          Athene blewitti                  Forest Owlet 24.08449
    ## 8    Pithecophaga jefferyi              Philippine Eagle 23.63732
    ## 9         Fregata andrewsi  Christmas Island Frigatebird 22.67818
    ## 10     Carpococcyx viridis        Sumatran Ground-cuckoo 21.15445
    ## # ... with 9,983 more rows, and 3 more variables: EDGE.Score <dbl>,
    ## #   EDGE.Rank <int>, sciName.edge <chr>
…
