…
------------------------------------------------------------------------

Lastly, the `edge` object provides a data frame that is useful for the
two previous functions as it links the Jetz et al. (2014) phylogeny with
your eBird checklist. You can peruse it independently, as it shows
updated scientific names, common names, and EDGE scores and ranks as
reported by the Jetz et al. paper:

``` r
edge
```

    ## # A tibble: 9,993 × 5
    ##                    sciName                       comName EDGE.Score
    ##                      <chr>                         <chr>      <dbl>
    ## 1       Pseudibis gigantea                    Giant Ibis   6.826561
    ## 2        Aegotheles savesi New Caledonian Owlet-nightjar   6.492502
    ## 3  Gymnogyps californianus             California Condor   6.310364
    ## 4      Strigops habroptila                        Kakapo   6.280292
    ## 5      Rhynochetos jubatus                          Kagu   6.111589
    ## 6  Houbaropsis bengalensis               Bengal Florican   6.002360
    ## 7          Athene blewitti                  Forest Owlet   5.994838
    ## 8    Pithecophaga jefferyi              Philippine Eagle   5.976851
    ## 9         Fregata andrewsi  Christmas Island Frigatebird   5.937143
    ## 10     Carpococcyx viridis        Sumatran Ground-cuckoo   5.870627
    ## # ... with 9,983 more rows, and 2 more variables: EDGE.Rank <int>,
    ## #   sciName.edge <chr>
…
